{
  "name": "P1_BOMtoCosting",
  "description": "Process 1\r\nBOM to Costing calculation",
  "main": "Main.xaml",
  "dependencies": {
    "UiPath.Excel.Activities": "[2.9.3]",
    "UiPath.System.Activities": "[20.10.1]",
    "UiPath.UIAutomation.Activities": "[20.10.6]"
  },
  "webServices": [],
  "entitiesStores": [],
  "schemaVersion": "4.0",
  "studioVersion": "20.10.2.0",
  "projectVersion": "0.2.1",
  "runtimeOptions": {
    "autoDispose": false,
    "isPausable": true,
    "requiresUserInteraction": true,
    "supportsPersistence": false,
    "excludedLoggedData": [
      "Private:*",
      "*password*"
    ],
    "executionType": "Workflow",
    "readyForPiP": false,
    "startsInPiP": false
  },
  "designOptions": {
    "projectProfile": "Developement",
    "outputType": "Process",
    "libraryOptions": {
      "includeOriginalXaml": false,
      "privateWorkflows": []
    },
    "processOptions": {
      "ignoredFiles": []
    },
    "fileInfoCollection": [],
    "modernBehavior": false
  },
  "expressionLanguage": "VisualBasic",
  "entryPoints": [
    {
      "filePath": "Main.xaml",
      "uniqueId": "0dbf6ee1-056f-48d0-8f66-267e3d14dc31",
      "input": [],
      "output": []
    }
  ],
  "isTemplate": false,
  "templateProjectData": {},
  "publishData": {},
  "targetFramework": "Legacy"
}